[
  {
    "code": 2,
    "name": "Sprite",
    "size": "1.0l",
    "price": 1.80,
    "inStock": 30
  },
  {
    "code": 3,
    "name": "Snickers",
    "size": "100g",
    "price": 1.50,
    "inStock": 19
  },
  {
    "code": 1,
    "name": "Coca-Cola",
    "size": "0.5l",
    "price": 1.20,
    "inStock": 21
  }
]